高等学校情報科におけるR言語の活用 - オープンデータの活用
…
すべての行にこの処理を適用しましょう。 mutate()関数を使って、任意の処理を各行へ適用可能です。

df_hinanjyo <- 
  mutate(df_hinanjyo,
         # 住所から市町村名の部分を取り出し、city列に格納する
         city = stringr::str_extract(address, "(.{2}郡.{2,3}町|.{2,3}(市|町|村))"))

結果を確認します。 先ほどcount()関数でcity列の項目を数えた際には欠損値だけでしたが、 今度は市町村のカウントが正しく行われているように見えます。

count(df_hinanjyo, city)

# A tibble: 46 × 2
   city         n
   <chr>    <int>
 1 みよし町    10
 2 三好市     190
 3 上勝町       5
 4 上板町      11
 5 中田町       2
 6 中郷町       2
 7 光字白村     1
 8 勝浦町      34
 9 北島町      15
10 吉野川市    18
# … with 36 more rows

# いくつかの行は欠損値のまま
filter(df_hinanjyo, is.na(city))

# A tibble: 75 × 6
   city  title            address                  latitude longitude type     
   <chr> <chr>            <chr>                       <dbl>     <dbl> <chr>    
 1 <NA>  明谷小学校       一宇字大屋内４３０４番地     33.9      134. 指定緊急…
 2 <NA>  平地区集会所     一宇字平３６９１番地１       33.9      134. 指定緊急…
 3 <NA>  葛籠地区集会所   一宇字葛籠６３０８番地       33.9      134. 指定緊急…
 4 <NA>  錦谷小学校       一宇字川又９５５番地１       33.9      134. 指定緊急…
 5 <NA>  河内地区集会所   一宇字大佐古６７０番地１     33.9      134. 指定緊急…
 6 <NA>  大野地区集会所   一宇字大野２２２番地         33.9      134. 指定緊急…
 7 <NA>  須貝瀬集会所     一宇字久藪２８８番地         33.9      134. 指定緊急…
 8 <NA>  伊良原地区集会所 一宇字伊良原１２３番地       33.9      134. 指定緊急…
 9 <NA>  久藪地区集会所   一宇字久藪２０５番地３       33.9      134. 指定緊急…
10 <NA>  一宇公民館       一宇字赤松６番地２           34.0      134. 指定緊急…
# … with 65 more rows
…
